{
  "notes": "## 1.0.0 (2021-11-17)\n\n### feature (2 changes)\n\n- [Title 2](namespace13/project13@ad608eb642124f5b3944ac0ac772fecaf570a6bf) ([merge request](namespace13/project13!2))\n- [Title 1](namespace13/project13@3c6b80ff7034fa0d585314e1571cc780596ce3c8) ([merge request](namespace13/project13!1))\n"
}
