{
  "id": "1a0b36b3cdad1d2ee32457c102a8c0b7056fa863",
  "short_id": "1a0b36b3",
  "title": "Initial commit",
  "created_at": "2014-02-27T08:03:18.000Z",
  "parent_ids": [],
  "message": "Initial commit\n",
  "author_name": "Example User",
  "author_email": "user@example.com",
  "authored_date": "2014-02-27T08:03:18.000Z",
  "committer_name": "Example User",
  "committer_email": "user@example.com",
  "committed_date": "2014-02-27T08:03:18.000Z"
}
