{
  "id":290,
  "iid":1,
  "project_id":143,
  "title":"foo",
  "description":"closed",
  "state":"opened",
  "created_at":"2021-09-14T22:24:11.696Z",
  "updated_at":"2021-09-14T22:24:11.696Z",
  "closed_at":null,
  "closed_by":null,
  "labels":[

  ],
  "milestone":null,
  "assignees":[
    {
      "id":179,
      "name":"John Doe2",
      "username":"john",
      "state":"active",
      "avatar_url":"https://www.gravatar.com/avatar/10fc7f102be8de7657fb4d80898bbfe3?s=80\u0026d=identicon",
      "web_url":"https://gitlab.example.com/john"
    }
  ],
  "author":{
    "id":179,
    "name":"John Doe2",
    "username":"john",
    "state":"active",
    "avatar_url":"https://www.gravatar.com/avatar/10fc7f102be8de7657fb4d80898bbfe3?s=80\u0026d=identicon",
    "web_url":"https://gitlab.example.com/john"
  },
  "type":"ISSUE",
  "assignee":{
    "id":179,
    "name":"John Doe2",
    "username":"john",
    "state":"active",
    "avatar_url":"https://www.gravatar.com/avatar/10fc7f102be8de7657fb4d80898bbfe3?s=80\u0026d=identicon",
    "web_url":"https://gitlab.example.com/john"
  },
  "user_notes_count":1,
  "merge_requests_count":0,
  "upvotes":0,
  "downvotes":0,
  "due_date":null,
  "confidential":false,
  "discussion_locked":null,
  "issue_type":"issue",
  "web_url":"https://gitlab.example.com/namespace1/project2/-/issues/1",
  "time_stats":{
    "time_estimate":0,
    "total_time_spent":0,
    "human_time_estimate":null,
    "human_total_time_spent":null
  },
  "task_completion_status":{
    "count":0,
    "completed_count":0
  },
  "blocking_issues_count":0,
  "has_tasks":false,
  "_links":{
    "self":"https://gitlab.example.com/api/v4/projects/143/issues/1",
    "notes":"https://gitlab.example.com/api/v4/projects/143/issues/1/notes",
    "award_emoji":"https://gitlab.example.com/api/v4/projects/143/issues/1/award_emoji",
    "project":"https://gitlab.example.com/api/v4/projects/143"
  },
  "references":{
    "short":"#1",
    "relative":"#1",
    "full":"namespace1/project2#1"
  },
  "subscribed":true,
  "moved_to_id":null,
  "service_desk_reply_to":null
}
