{
  "commit": {
    "author_email": "admin@example.com",
    "author_name": "Administrator",
    "created_at": "2015-12-24T16:51:14.000+01:00",
    "id": "0ff3ae198f8601a285adcf5c0fff204ee6fba5fd",
    "message": "Test the CI integration.",
    "short_id": "0ff3ae19",
    "title": "Test the CI integration."
  },
  "coverage": null,
  "allow_failure": false,
  "created_at": "2015-12-24T15:51:21.88Z",
  "started_at": "2015-12-24T17:54:30.733Z",
  "finished_at": "2015-12-24T17:54:31.198Z",
  "duration": 0.465,
  "queued_duration": 0.123,
  "artifacts_expire_at": "2016-01-23T17:54:31.198Z",
  "id": 8,
  "name": "rubocop",
  "pipeline": {
    "id": 6,
    "project_id": 1,
    "ref": "main",
    "sha": "0ff3ae198f8601a285adcf5c0fff204ee6fba5fd",
    "status": "pending"
  },
  "ref": "main",
  "artifacts": [],
  "runner": null,
  "stage": "test",
  "status": "failed",
  "failure_reason": "script_failure",
  "tag": false,
  "web_url": "https://example.com/foo/bar/-/jobs/8",
  "user": {
    "id": 1,
    "name": "Administrator",
    "username": "root",
    "state": "active",
    "avatar_url": "http://www.gravatar.com/avatar/e64c7d89f26bd1972efa854d13d7dd61?s=80&d=identicon",
    "web_url": "http://gitlab.dev/root",
    "created_at": "2015-12-21T13:14:24.077Z",
    "bio": null,
    "location": null,
    "public_email": "",
    "skype": "",
    "linkedin": "",
    "twitter": "",
    "website_url": "",
    "organization": ""
  }
}
