[
   {
      "state" : "opened",
      "description" : "Ratione dolores corrupti mollitia soluta quia.",
      "author" : {
         "state" : "active",
         "id" : 18,
         "web_url" : "https://gitlab.example.com/eileen.lowe",
         "name" : "Alexandra Bashirian",
         "avatar_url" : null,
         "username" : "eileen.lowe"
      },
      "milestone" : {
         "project_id" : 1,
         "description" : "Ducimus nam enim ex consequatur cumque ratione.",
         "state" : "closed",
         "due_date" : null,
         "iid" : 2,
         "created_at" : "2016-01-04T15:31:39.996Z",
         "title" : "v4.0",
         "id" : 17,
         "updated_at" : "2016-01-04T15:31:39.996Z"
      },
      "project_id" : 1,
      "assignee" : {
         "state" : "active",
         "id" : 1,
         "name" : "Administrator",
         "web_url" : "https://gitlab.example.com/root",
         "avatar_url" : null,
         "username" : "root"
      },
      "updated_at" : "2016-01-04T15:31:51.081Z",
      "id" : 76,
      "title" : "Consequatur vero maxime deserunt laboriosam est voluptas dolorem.",
      "created_at" : "2016-01-04T15:31:51.081Z",
      "iid" : 6,
      "labels" : [],
      "user_notes_count": 1,
      "changes_count": "1"
   }
]
