{
  "id": 113,
  "project": {
    "id": 3,
    "name": "GitLab CI/CD",
    "name_with_namespace": "GitLab Org / GitLab CI/CD",
    "path": "gitlab-ci",
    "path_with_namespace": "gitlab-org/gitlab-ci"
  },
  "author": {
    "name": "Administrator",
    "username": "root",
    "id": 1,
    "state": "active",
    "avatar_url": "http://www.gravatar.com/avatar/e64c7d89f26bd1972efa854d13d7dd61?s=80&d=identicon",
    "web_url": "https://gitlab.example.com/root"
  },
  "action_name": "marked",
  "target_type": "MergeRequest",
  "target": {
    "id": 27,
    "iid": 7,
    "project_id": 3,
    "title": "Et voluptas laudantium minus nihil recusandae ut accusamus earum aut non.",
    "description": "Veniam sunt nihil modi earum cumque illum delectus. Nihil ad quis distinctio quia. Autem eligendi at quibusdam repellendus.",
    "state": "merged",
    "created_at": "2016-06-17T07:48:04.33Z",
    "updated_at": "2016-07-01T11:14:15.537Z",
    "target_branch": "allow_regex_for_project_skip_ref",
    "source_branch": "backup",
    "upvotes": 0,
    "downvotes": 0,
    "author": {
      "name": "Jarret O'Keefe",
      "username": "francisca",
      "id": 14,
      "state": "active",
      "avatar_url": "http://www.gravatar.com/avatar/a7fa515d53450023c83d62986d0658a8?s=80&d=identicon",
      "web_url": "https://gitlab.example.com/francisca",
      "discussion_locked": false
    },
    "assignee": {
      "name": "Dr. Gabrielle Strosin",
      "username": "barrett.krajcik",
      "id": 4,
      "state": "active",
      "avatar_url": "http://www.gravatar.com/avatar/733005fcd7e6df12d2d8580171ccb966?s=80&d=identicon",
      "web_url": "https://gitlab.example.com/barrett.krajcik"
    },
    "assignees": [{
      "name": "Miss Monserrate Beier",
      "username": "axel.block",
      "id": 12,
      "state": "active",
      "avatar_url": "http://www.gravatar.com/avatar/46f6f7dc858ada7be1853f7fb96e81da?s=80&d=identicon",
      "web_url": "https://gitlab.example.com/axel.block"
    }],
    "reviewers": [{
      "name": "Miss Monserrate Beier",
      "username": "axel.block",
      "id": 12,
      "state": "active",
      "avatar_url": "http://www.gravatar.com/avatar/46f6f7dc858ada7be1853f7fb96e81da?s=80&d=identicon",
      "web_url": "https://gitlab.example.com/axel.block"
    }],
    "source_project_id": 3,
    "target_project_id": 3,
    "labels": [],
    "draft": false,
    "work_in_progress": false,
    "milestone": {
      "id": 27,
      "iid": 2,
      "project_id": 3,
      "title": "v1.0",
      "description": "Quis ea accusantium animi hic fuga assumenda.",
      "state": "active",
      "created_at": "2016-06-17T07:47:33.84Z",
      "updated_at": "2016-06-17T07:47:33.84Z",
      "due_date": null
    },
    "merge_when_pipeline_succeeds": false,
    "merge_status": "unchecked",
    "subscribed": true,
    "sha": "8888888888888888888888888888888888888888",
    "merge_commit_sha": null,
    "squash_commit_sha": null,
    "user_notes_count": 7,
    "changes_count": "1",
    "should_remove_source_branch": true,
    "force_remove_source_branch": false,
    "squash": false,
    "web_url": "http://example.com/my-group/my-project/merge_requests/1",
    "references": {
      "short": "!1",
      "relative": "!1",
      "full": "my-group/my-project!1"
    }
  },
  "target_url": "https://gitlab.example.com/gitlab-org/gitlab-ci/merge_requests/7",
  "body": "Et voluptas laudantium minus nihil recusandae ut accusamus earum aut non.",
  "state": "pending",
  "created_at": "2016-07-01T11:14:15.53Z"
}
